DataCamp - Introduction to the Tidyverse
…
## 
## Attaching package: 'dplyr'

## The following objects are masked from 'package:stats':
## 
##     filter, lag

## The following objects are masked from 'package:base':
## 
##     intersect, setdiff, setequal, union

# this is what we need to operate
gapminder

## # A tibble: 1,704 x 6
##    country     continent  year lifeExp      pop gdpPercap
##    <fct>       <fct>     <int>   <dbl>    <int>     <dbl>
##  1 Afghanistan Asia       1952    28.8  8425333      779.
##  2 Afghanistan Asia       1957    30.3  9240934      821.
##  3 Afghanistan Asia       1962    32.0 10267083      853.
##  4 Afghanistan Asia       1967    34.0 11537966      836.
##  5 Afghanistan Asia       1972    36.1 13079460      740.
##  6 Afghanistan Asia       1977    38.4 14880372      786.
##  7 Afghanistan Asia       1982    39.9 12881816      978.
##  8 Afghanistan Asia       1987    40.8 13867957      852.
##  9 Afghanistan Asia       1992    41.7 16317921      649.
## 10 Afghanistan Asia       1997    41.8 22227415      635.
## # ... with 1,694 more rows

gapminder %>% 
  filter(year == 1957) %>%
  arrange(desc(pop)) %>%
  mutate(lifeExpMonth = lifeExp * 12)

## # A tibble: 142 x 7
##    country        continent  year lifeExp       pop gdpPercap lifeExpMonth
##    <fct>          <fct>     <int>   <dbl>     <int>     <dbl>        <dbl>
##  1 China          Asia       1957    50.5 637408000      576.         607.
##  2 India          Asia       1957    40.2 409000000      590.         483.
##  3 United States  Americas   1957    69.5 171984000    14847.         834.
##  4 Japan          Asia       1957    65.5  91563009     4318.         786 
##  5 Indonesia      Asia       1957    39.9  90124000      859.         479.
##  6 Germany        Europe     1957    69.1  71019069    10188.         829.
##  7 Brazil         Americas   1957    53.3  65551171     2487.         639.
##  8 United Kingdom Europe     1957    70.4  51430000    11283.         845.
##  9 Bangladesh     Asia       1957    39.3  51365468      662.         472.
## 10 Italy          Europe     1957    67.8  49182000     6249.         814.
## # ... with 132 more rows
…
